{
  "project_info": {
    "project_number": "862128057744",
    "firebase_url": "https://demofirestore-3e609.firebaseio.com",
    "project_id": "demofirestore-3e609",
    "storage_bucket": "demofirestore-3e609.appspot.com"
  },
  "client": [
    {
      "client_info": {
        "mobilesdk_app_id": "1:862128057744:android:0db199eb112f70ef331715",
        "android_client_info": {
          "package_name": "com.digidinos.firebase"
        }
      },
      "oauth_client": [
        {
          "client_id": "862128057744-ea3bq33pdsik56qptenl4vrmgs7ellnh.apps.googleusercontent.com",
          "client_type": 3
        }
      ],
      "api_key": [
        {
          "current_key": "AIzaSyBGIfFuwr5oIkeMk9Pb5oP5GHjzdABhoz4"
        }
      ],
      "services": {
        "appinvite_service": {
          "other_platform_oauth_client": [
            {
              "client_id": "862128057744-ea3bq33pdsik56qptenl4vrmgs7ellnh.apps.googleusercontent.com",
              "client_type": 3
            }
          ]
        }
      }
    },
    {
      "client_info": {
        "mobilesdk_app_id": "1:862128057744:android:8292842b03b4e285331715",
        "android_client_info": {
          "package_name": "com.example.template"
        }
      },
      "oauth_client": [
        {
          "client_id": "862128057744-ea3bq33pdsik56qptenl4vrmgs7ellnh.apps.googleusercontent.com",
          "client_type": 3
        }
      ],
      "api_key": [
        {
          "current_key": "AIzaSyBGIfFuwr5oIkeMk9Pb5oP5GHjzdABhoz4"
        }
      ],
      "services": {
        "appinvite_service": {
          "other_platform_oauth_client": [
            {
              "client_id": "862128057744-ea3bq33pdsik56qptenl4vrmgs7ellnh.apps.googleusercontent.com",
              "client_type": 3
            }
          ]
        }
      }
    }
  ],
  "configuration_version": "1"
}